…
Table: Partial effect size estimates for predictors of continuous cholesterol levels

|Parameter | Omega2_partial|   CI| CI_low| CI_high|
|:---------|--------------:|----:|------:|-------:|
|sex       |          0.105| 0.95|  0.074|       1|
|diet      |          0.299| 0.95|  0.256|       1|
|calcium2  |          0.215| 0.95|  0.174|       1|

```r
dplyr::filter(cholesterol.data, sex == "M")
```

```
## # A tibble: 417 × 173
##    mouse.id sex     gen litter diet  coat.color  acr1  acr2 adiponectin b.area1
##    <chr>    <fct> <dbl>  <dbl> <fct> <chr>      <dbl> <dbl>       <dbl>   <dbl>
##  1 F142     M         7      2 hf    agouti        NA    NA          NA    8.31
##  2 M01      M         4      2 hf    agouti        NA    NA          NA    9.97
##  3 M02      M         4      2 hf    agouti        NA    NA          NA    9.02
##  4 M03      M         4      2 hf    agouti        NA    NA          NA    9.05
##  5 M04      M         4      2 hf    black         NA    NA          NA    9.55
##  6 M05      M         4      2 hf    agouti        NA    NA          NA    8.78
##  7 M06      M         4      2 hf    agouti        NA    NA          NA   11.4 
##  8 M07      M         4      2 hf    agouti        NA    NA          NA    9.24
##  9 M08      M         4      2 hf    black         NA    NA          NA   10.7 
## 10 M09      M         4      2 hf    agouti        NA    NA          NA   NA   
## # ℹ 407 more rows
## # ℹ 163 more variables: b.area2 <dbl>, bmc1 <dbl>, bmc2 <dbl>, bmd1 <dbl>,
## #   bmd2 <dbl>, bun1 <dbl>, bun2 <dbl>, bw.10 <dbl>, bw.11 <dbl>, bw.12 <dbl>,
## #   bw.13 <dbl>, bw.14 <dbl>, bw.15 <dbl>, bw.16 <dbl>, bw.17 <dbl>,
## #   bw.18 <dbl>, bw.19 <dbl>, bw.20 <dbl>, bw.21 <dbl>, bw.22 <dbl>,
## #   bw.23 <dbl>, bw.24 <dbl>, bw.25 <dbl>, bw.26 <dbl>, bw.27 <dbl>,
## #   bw.28 <dbl>, bw.29 <dbl>, bw.3 <dbl>, bw.30 <dbl>, bw.4 <dbl>, …
```
…
