Cleaning of Medication Data
…
Show the code

cat("\nRe-run intensity classification check (spot-check combos):\n")

Re-run intensity classification check (spot-check combos):

Show the code

meds_statins |>
  filter(dose_source != "name_parsed") |>
  count(drug_name, dose_mg, dose_source, sort = TRUE) |>
  print(n = 30)

# A tibble: 59 × 4
   drug_name    dose_mg dose_source          n
   <chr>          <dbl> <chr>            <int>
 1 simvastatin        0 mindose            599
 2 atorvastatin      10 mindose            582
 3 atorvastatin       0 mindose            549
 4 atorvastatin      20 mindose            493
 5 simvastatin       40 vytorin_name       342
 6 atorvastatin      40 mindose            305
 7 simvastatin       20 vytorin_name       242
 8 atorvastatin      NA mindose            237
 9 atorvastatin      80 mindose            198
10 simvastatin       NA mindose            174
11 simvastatin       80 vytorin_name       142
12 simvastatin       10 vytorin_name       119
13 pravastatin        0 mindose            100
14 rosuvastatin       0 mindose             77
15 simvastatin       NA vytorin_name        65
16 rosuvastatin      NA mindose             57
17 pravastatin       NA mindose             47
18 atorvastatin       1 mindose             30
19 simvastatin       20 mindose             28
20 simvastatin       40 mindose             21
21 simvastatin       20 niacin_ambiguous    15
22 pravastatin       40 mindose             12
23 rosuvastatin       5 mindose             12
24 fluvastatin        0 mindose             11
25 rosuvastatin      20 mindose             10
26 simvastatin       10 mindose             10
27 pitavastatin      NA mindose              9
28 rosuvastatin       1 mindose              8
29 rosuvastatin      10 mindose              8
30 pravastatin        1 mindose              7
# ℹ 29 more rows
Quality of Dose Extraction

Show the code

cat("\n--- Dose extraction summary ---\n")

--- Dose extraction summary ---

Show the code

meds_statins |>
  count(drug_name, dose_mg, sort = TRUE) |>
  print(n = 30)

# A tibble: 59 × 3
   drug_name    dose_mg      n
   <chr>          <dbl>  <int>
 1 atorvastatin      20 148476
 2 atorvastatin      40 148197
 3 atorvastatin      10  75013
 4 atorvastatin      80  68174
 5 simvastatin       20  54312
 6 simvastatin       40  47434
 7 rosuvastatin      10  38260
 8 rosuvastatin       5  24935
 9 rosuvastatin      20  21794
10 pravastatin       20  21218
11 pravastatin       40  18166
12 simvastatin       10  15107
13 rosuvastatin      40  12810
14 pravastatin       10   7440
15 simvastatin       80   4438
16 pravastatin       80   4297
17 simvastatin        5   2397
18 simvastatin        0    599
19 atorvastatin       0    549
20 pitavastatin       1    316
21 fluvastatin       20    243
22 simvastatin       NA    243
23 atorvastatin      NA    237
24 pitavastatin       2    229
25 fluvastatin       40    130
26 pravastatin        0    100
27 pitavastatin       4     88
28 rosuvastatin       0     77
29 fluvastatin       80     71
30 rosuvastatin      NA     57
# ℹ 29 more rows
…
meds_statins <- meds_statins |>
  mutate(
    intensity = classify_intensity(drug_name, dose_mg),
    intensity = factor(intensity, levels = c("low", "moderate", "high"))
  )

cat("Intensity classification:\n")

Intensity classification:

Show the code

meds_statins |> count(intensity, drug_name, dose_mg) |> print(n = 40)

# A tibble: 59 × 4
   intensity drug_name    dose_mg      n
   <fct>     <chr>          <dbl>  <int>
 1 low       fluvastatin      0       11
 2 low       fluvastatin     20      243
 3 low       fluvastatin     40      130
 4 low       pitavastatin     1      316
 5 low       pravastatin      0      100
 6 low       pravastatin      1        7
 7 low       pravastatin      5        7
 8 low       pravastatin     10     7440
 9 low       pravastatin     20    21218
10 low       simvastatin      0      599
11 low       simvastatin      1        6
12 low       simvastatin      2        1
13 low       simvastatin      2.5     16
14 low       simvastatin      5     2397
15 low       simvastatin     10    15107
16 moderate  atorvastatin    10    75013
17 moderate  atorvastatin    20   148476
18 moderate  fluvastatin     80       71
19 moderate  pitavastatin     2      229
20 moderate  pitavastatin     4       88
21 moderate  pravastatin     40    18166
22 moderate  pravastatin     80     4297
23 moderate  rosuvastatin     5    24935
24 moderate  rosuvastatin    10    38260
25 moderate  simvastatin     20    54312
26 moderate  simvastatin     40    47434
27 high      atorvastatin    40   148197
28 high      atorvastatin    80    68174
29 high      atorvastatin   100        1
30 high      rosuvastatin    20    21794
31 high      rosuvastatin    30        1
32 high      rosuvastatin    40    12810
33 high      rosuvastatin    80        2
34 high      rosuvastatin   150        1
35 <NA>      atorvastatin     0      549
36 <NA>      atorvastatin     0.5      1
37 <NA>      atorvastatin     1       30
38 <NA>      atorvastatin     2.5      1
39 <NA>      atorvastatin     5       33
40 <NA>      atorvastatin    NA      237
# ℹ 19 more rows
…
